glLineWidth(3.0f);
	DrawColor(NAVYBLUE_ID, tricolorsForD);
	glBegin(GL_LINES);
	glVertex3f(x - 0.1f, y + 0.4f, 0.0f);
	glVertex3f(x + 0.3f, y + 0.4, 0.0f);
	glEnd();

	glBegin(GL_LINES);
	glVertex3f(x - 0.1f, y - 0.4f, 0.0f);
	glVertex3f(x + 0.3f, y - 0.4, 0.0f);
	glEnd();
